…
List of 2
 $ labels: tibble [24 × 4] (S3: tbl_df/tbl/data.frame)
 $ data  : tibble [6,400 × 13] (S3: tbl_df/tbl/data.frame)
 - attr(*, "class")= chr "projoint_data"
# A tibble: 6 × 13
  id             task profile att4  att7  att3  att1  att2  att5  att6  selected
  <chr>         <dbl>   <dbl> <fct> <fct> <fct> <fct> <fct> <fct> <fct>    <dbl>
1 R_00zYHdY1te…     1       1 att4… att7… att3… att1… att2… att5… att6…        1
2 R_00zYHdY1te…     1       2 att4… att7… att3… att1… att2… att5… att6…        0
3 R_00zYHdY1te…     2       1 att4… att7… att3… att1… att2… att5… att6…        1
4 R_00zYHdY1te…     2       2 att4… att7… att3… att1… att2… att5… att6…        0
5 R_00zYHdY1te…     3       1 att4… att7… att3… att1… att2… att5… att6…        1
6 R_00zYHdY1te…     3       2 att4… att7… att3… att1… att2… att5… att6…        0
# ℹ 2 more variables: selected_repeated <dbl>, agree <dbl>
# A tibble: 24 × 4
   attribute                level                        attribute_id level_id  
   <chr>                    <chr>                        <chr>        <chr>     
 1 Housing Cost             15% of pre-tax income        att1         att1:leve…
 2 Housing Cost             30% of pre-tax income        att1         att1:leve…
 3 Housing Cost             40% of pre-tax income        att1         att1:leve…
 4 Presidential Vote (2020) 30% Democrat, 70% Republican att2         att2:leve…
 5 Presidential Vote (2020) 50% Democrat, 50% Republican att2         att2:leve…
 6 Presidential Vote (2020) 70% Democrat, 30% Republican att2         att2:leve…
 7 Racial Composition       50% White, 50% Nonwhite      att3         att3:leve…
 8 Racial Composition       75% White, 25% Nonwhite      att3         att3:leve…
 9 Racial Composition       90% White, 10% Nonwhite      att3         att3:leve…
10 Racial Composition       96% White, 4% Nonwhite       att3         att3:leve…
# ℹ 14 more rows
…
[1] "att1:level1" "att1:level2" "att1:level3"
att2 
[1] "att2:level1" "att2:level2" "att2:level3"
att3 
[1] "att3:level1" "att3:level2" "att3:level3" "att3:level4"
att4 
[1] "att4:level1" "att4:level2"
att5 
[1] "att5:level1" "att5:level2" "att5:level3" "att5:level4"
att6 
[1] "att6:level1" "att6:level2" "att6:level3" "att6:level4" "att6:level5"
[6] "att6:level6"
att7 
[1] "att7:level1" "att7:level2"
# A tibble: 24 × 4
   attribute                level                        attribute_id level_id  
   <chr>                    <chr>                        <chr>        <chr>     
 1 Housing Cost             15% of pre-tax income        att1         att1:leve…
 2 Housing Cost             30% of pre-tax income        att1         att1:leve…
 3 Housing Cost             40% of pre-tax income        att1         att1:leve…
 4 Presidential Vote (2020) 30% Democrat, 70% Republican att2         att2:leve…
 5 Presidential Vote (2020) 50% Democrat, 50% Republican att2         att2:leve…
 6 Presidential Vote (2020) 70% Democrat, 30% Republican att2         att2:leve…
 7 Racial Composition       50% White, 50% Nonwhite      att3         att3:leve…
 8 Racial Composition       75% White, 25% Nonwhite      att3         att3:leve…
 9 Racial Composition       90% White, 10% Nonwhite      att3         att3:leve…
10 Racial Composition       96% White, 4% Nonwhite       att3         att3:leve…
# ℹ 14 more rows
…
