…
exec
/bin/zsh -lc "Rscript -e 'library(projoint); data(exampleData1); out <- reshape_projoint(exampleData1,.outcomes=c(paste0(\"choice\",1:8),\"choice1_repeated_flipped\")); print(names(out)); str(out, max.level=1); print(head(out)); print(ls(\"package:projoint\"))'" in ~/Documents/github/resources/ai-for-research/demos/orchestration-lab/runs/46/t3
 succeeded in 932ms:
[1] "labels" "data"  
List of 2
 $ labels: tibble [24 × 4] (S3: tbl_df/tbl/data.frame)
 $ data  : tibble [6,400 × 13] (S3: tbl_df/tbl/data.frame)
 - attr(*, "class")= chr "projoint_data"
$labels
# A tibble: 24 × 4
   attribute                level                        attribute_id level_id  
   <chr>                    <chr>                        <chr>        <chr>     
 1 Housing Cost             15% of pre-tax income        att1         att1:leve…
 2 Housing Cost             30% of pre-tax income        att1         att1:leve…
 3 Housing Cost             40% of pre-tax income        att1         att1:leve…
 4 Presidential Vote (2020) 30% Democrat, 70% Republican att2         att2:leve…
 5 Presidential Vote (2020) 50% Democrat, 50% Republican att2         att2:leve…
 6 Presidential Vote (2020) 70% Democrat, 30% Republican att2         att2:leve…
 7 Racial Composition       50% White, 50% Nonwhite      att3         att3:leve…
 8 Racial Composition       75% White, 25% Nonwhite      att3         att3:leve…
 9 Racial Composition       90% White, 10% Nonwhite      att3         att3:leve…
10 Racial Composition       96% White, 4% Nonwhite       att3         att3:leve…
# ℹ 14 more rows

$data
# A tibble: 6,400 × 13
   id            task profile att4  att7  att3  att1  att2  att5  att6  selected
   <chr>        <dbl>   <dbl> <fct> <fct> <fct> <fct> <fct> <fct> <fct>    <dbl>
 1 R_00zYHdY1t…     1       1 att4… att7… att3… att1… att2… att5… att6…        1
 2 R_00zYHdY1t…     1       2 att4… att7… att3… att1… att2… att5… att6…        0
 3 R_00zYHdY1t…     2       1 att4… att7… att3… att1… att2… att5… att6…        1
 4 R_00zYHdY1t…     2       2 att4… att7… att3… att1… att2… att5… att6…        0
 5 R_00zYHdY1t…     3       1 att4… att7… att3… att1… att2… att5… att6…        1
 6 R_00zYHdY1t…     3       2 att4… att7… att3… att1… att2… att5… att6…        0
 7 R_00zYHdY1t…     4       1 att4… att7… att3… att1… att2… att5… att6…        0
 8 R_00zYHdY1t…     4       2 att4… att7… att3… att1… att2… att5… att6…        1
 9 R_00zYHdY1t…     5       1 att4… att7… att3… att1… att2… att5… att6…        1
10 R_00zYHdY1t…     5       2 att4… att7… att3… att1… att2… att5… att6…        0
# ℹ 6,390 more rows
# ℹ 2 more variables: selected_repeated <dbl>, agree <dbl>
…
exec
/bin/zsh -lc "Rscript - <<'RS'
library(projoint)
data(exampleData1)
out <- reshape_projoint(exampleData1,.outcomes=c(paste0('choice',1:8),'choice1_repeated_flipped'))
print(out"'$labels)
r <- projoint(out,.structure='"'profile_level',.estimand='mm',.se_method='analytical')
print(r"'$estimates)
a <- projoint(out,.structure='"'profile_level',.estimand='amce',.se_method='analytical')
print(a"'$estimates)
RS' in ~/Documents/github/resources/ai-for-research/demos/orchestration-lab/runs/46/t3
 succeeded in 2106ms:
# A tibble: 24 × 4
   attribute                level                        attribute_id level_id  
   <chr>                    <chr>                        <chr>        <chr>     
 1 Housing Cost             15% of pre-tax income        att1         att1:leve…
 2 Housing Cost             30% of pre-tax income        att1         att1:leve…
 3 Housing Cost             40% of pre-tax income        att1         att1:leve…
 4 Presidential Vote (2020) 30% Democrat, 70% Republican att2         att2:leve…
 5 Presidential Vote (2020) 50% Democrat, 50% Republican att2         att2:leve…
 6 Presidential Vote (2020) 70% Democrat, 30% Republican att2         att2:leve…
 7 Racial Composition       50% White, 50% Nonwhite      att3         att3:leve…
 8 Racial Composition       75% White, 25% Nonwhite      att3         att3:leve…
 9 Racial Composition       90% White, 10% Nonwhite      att3         att3:leve…
10 Racial Composition       96% White, 4% Nonwhite       att3         att3:leve…
# ℹ 14 more rows
# A tibble: 48 × 6
   estimand       estimate     se conf.low conf.high att_level_choose
   <chr>             <dbl>  <dbl>    <dbl>     <dbl> <chr>           
 1 mm_uncorrected    0.574 0.0142    0.546     0.602 att1:level1     
 2 mm_corrected      0.614 0.0219    0.571     0.657 att1:level1     
 3 mm_uncorrected    0.485 0.0136    0.458     0.511 att1:level2     
 4 mm_corrected      0.477 0.0207    0.436     0.517 att1:level2     
 5 mm_uncorrected    0.445 0.0142    0.417     0.472 att1:level3     
 6 mm_corrected      0.416 0.0219    0.372     0.459 att1:level3     
 7 mm_uncorrected    0.489 0.0150    0.459     0.518 att2:level1     
 8 mm_corrected      0.483 0.0229    0.438     0.528 att2:level1     
 9 mm_uncorrected    0.524 0.0133    0.497     0.550 att2:level2     
10 mm_corrected      0.536 0.0203    0.496     0.576 att2:level2     
# ℹ 38 more rows
Warning messages:
1: In pj_estimate(.data = .data, .structure = structure, .estimand = estimand,  :
  AMCE analytical SEs: CR2 produced non-PSD/NA variances; fell back to se_type='stata' (then HC1 if needed).
2: In pj_estimate(.data = .data, .structure = structure, .estimand = estimand,  :
  AMCE analytical SEs: CR2 produced non-PSD/NA variances; fell back to se_type='stata' (then HC1 if needed).
3: In pj_estimate(.data = .data, .structure = structure, .estimand = estimand,  :
  AMCE analytical SEs: CR2 produced non-PSD/NA variances; fell back to se_type='stata' (then HC1 if needed).
# A tibble: 34 × 7
   estimand         estimate     se conf.low conf.high att_level_choose
   <chr>               <dbl>  <dbl>    <dbl>     <dbl> <chr>           
 1 amce_uncorrected -0.0899  0.0236  -0.136    -0.0435 att1:level2     
 2 amce_corrected   -0.137   0.0360  -0.208    -0.0662 att1:level2     
 3 amce_uncorrected -0.130   0.0250  -0.179    -0.0808 att1:level3     
 4 amce_corrected   -0.198   0.0386  -0.274    -0.122  att1:level3     
 5 amce_uncorrected  0.0348  0.0244  -0.0132    0.0828 att2:level2     
 6 amce_corrected    0.0530  0.0372  -0.0202    0.126  att2:level2     
 7 amce_uncorrected -0.00177 0.0263  -0.0536    0.0500 att2:level3     
 8 amce_corrected   -0.00270 0.0402  -0.0817    0.0763 att2:level3     
 9 amce_uncorrected  0.0240  0.0233  -0.0218    0.0699 att3:level2     
10 amce_corrected    0.0366  0.0357  -0.0336    0.107  att3:level2     
# ℹ 24 more rows
# ℹ 1 more variable: att_level_choose_baseline <chr>
…
