…
  ..$ profile          : num [1:6400] 1 2 1 2 1 2 1 2 1 2 ...
  ..$ att4             : Factor w/ 2 levels "att4:level1",..: 2 1 2 2 1 2 1 2 1 1 ...
  ..$ att7             : Factor w/ 2 levels "att7:level1",..: 1 2 2 2 2 2 1 1 1 1 ...
  ..$ att3             : Factor w/ 4 levels "att3:level1",..: 1 1 3 4 4 3 1 1 2 4 ...
  ..$ att1             : Factor w/ 3 levels "att1:level1",..: 2 2 2 3 3 2 1 1 1 2 ...
  ..$ att2             : Factor w/ 3 levels "att2:level1",..: 2 3 2 1 3 1 3 2 2 2 ...
  ..$ att5             : Factor w/ 4 levels "att5:level1",..: 4 1 4 1 1 3 2 1 4 2 ...
  ..$ att6             : Factor w/ 6 levels "att6:level1",..: 5 1 6 6 3 3 5 6 2 2 ...
  ..$ selected         : num [1:6400] 1 0 1 0 1 0 0 1 1 0 ...
  ..$ selected_repeated: num [1:6400] 1 0 NA NA NA NA NA NA NA NA ...
  ..$ agree            : num [1:6400] 1 1 NA NA NA NA NA NA NA NA ...
 - attr(*, "class")= chr "projoint_data"
[1] "labels" "data"  
$labels
# A tibble: 24 × 4
   attribute                level                        attribute_id level_id  
   <chr>                    <chr>                        <chr>        <chr>     
 1 Housing Cost             15% of pre-tax income        att1         att1:leve…
 2 Housing Cost             30% of pre-tax income        att1         att1:leve…
 3 Housing Cost             40% of pre-tax income        att1         att1:leve…
 4 Presidential Vote (2020) 30% Democrat, 70% Republican att2         att2:leve…
 5 Presidential Vote (2020) 50% Democrat, 50% Republican att2         att2:leve…
 6 Presidential Vote (2020) 70% Democrat, 30% Republican att2         att2:leve…
 7 Racial Composition       50% White, 50% Nonwhite      att3         att3:leve…
 8 Racial Composition       75% White, 25% Nonwhite      att3         att3:leve…
 9 Racial Composition       90% White, 10% Nonwhite      att3         att3:leve…
10 Racial Composition       96% White, 4% Nonwhite       att3         att3:leve…
# ℹ 14 more rows

$data
# A tibble: 6,400 × 13
   id            task profile att4  att7  att3  att1  att2  att5  att6  selected
   <chr>        <dbl>   <dbl> <fct> <fct> <fct> <fct> <fct> <fct> <fct>    <dbl>
 1 R_00zYHdY1t…     1       1 att4… att7… att3… att1… att2… att5… att6…        1
 2 R_00zYHdY1t…     1       2 att4… att7… att3… att1… att2… att5… att6…        0
 3 R_00zYHdY1t…     2       1 att4… att7… att3… att1… att2… att5… att6…        1
 4 R_00zYHdY1t…     2       2 att4… att7… att3… att1… att2… att5… att6…        0
 5 R_00zYHdY1t…     3       1 att4… att7… att3… att1… att2… att5… att6…        1
 6 R_00zYHdY1t…     3       2 att4… att7… att3… att1… att2… att5… att6…        0
 7 R_00zYHdY1t…     4       1 att4… att7… att3… att1… att2… att5… att6…        0
 8 R_00zYHdY1t…     4       2 att4… att7… att3… att1… att2… att5… att6…        1
 9 R_00zYHdY1t…     5       1 att4… att7… att3… att1… att2… att5… att6…        1
10 R_00zYHdY1t…     5       2 att4… att7… att3… att1… att2… att5… att6…        0
# ℹ 6,390 more rows
# ℹ 2 more variables: selected_repeated <dbl>, agree <dbl>
…
  ..$ task             : num [1:6400] 1 1 2 2 3 3 4 4 5 5 ...
  ..$ profile          : num [1:6400] 1 2 1 2 1 2 1 2 1 2 ...
  ..$ att4             : Factor w/ 2 levels "att4:level1",..: 2 1 2 2 1 2 1 2 1 1 ...
  ..$ att7             : Factor w/ 2 levels "att7:level1",..: 1 2 2 2 2 2 1 1 1 1 ...
  ..$ att3             : Factor w/ 4 levels "att3:level1",..: 1 1 3 4 4 3 1 1 2 4 ...
  ..$ att1             : Factor w/ 3 levels "att1:level1",..: 2 2 2 3 3 2 1 1 1 2 ...
  ..$ att2             : Factor w/ 3 levels "att2:level1",..: 2 3 2 1 3 1 3 2 2 2 ...
  ..$ att5             : Factor w/ 4 levels "att5:level1",..: 4 1 4 1 1 3 2 1 4 2 ...
  ..$ att6             : Factor w/ 6 levels "att6:level1",..: 5 1 6 6 3 3 5 6 2 2 ...
  ..$ selected         : num [1:6400] 1 0 1 0 1 0 0 1 1 0 ...
  ..$ selected_repeated: num [1:6400] 1 0 NA NA NA NA NA NA NA NA ...
  ..$ agree            : num [1:6400] 1 1 NA NA NA NA NA NA NA NA ...
 - attr(*, "class")= chr "projoint_results"
EST
# A tibble: 34 × 7
   estimand         estimate     se conf.low conf.high att_level_choose
   <chr>               <dbl>  <dbl>    <dbl>     <dbl> <chr>           
 1 amce_uncorrected -0.0899  0.0236  -0.136    -0.0435 att1:level2     
 2 amce_corrected   -0.137   0.0360  -0.208    -0.0662 att1:level2     
 3 amce_uncorrected -0.130   0.0250  -0.179    -0.0808 att1:level3     
 4 amce_corrected   -0.198   0.0386  -0.274    -0.122  att1:level3     
 5 amce_uncorrected  0.0348  0.0244  -0.0132    0.0828 att2:level2     
 6 amce_corrected    0.0530  0.0372  -0.0202    0.126  att2:level2     
 7 amce_uncorrected -0.00177 0.0263  -0.0536    0.0500 att2:level3     
 8 amce_corrected   -0.00270 0.0402  -0.0817    0.0763 att2:level3     
 9 amce_uncorrected  0.0240  0.0233  -0.0218    0.0699 att3:level2     
10 amce_corrected    0.0366  0.0357  -0.0336    0.107  att3:level2     
# ℹ 24 more rows
# ℹ 1 more variable: att_level_choose_baseline <chr>
SUM

Summary of Projoint Estimates
------------------------------
Estimand: amce
Structure: profile_level
Standard error method: analytical
SE type (lm_robust):   stata (clustered by id)
IRR: Estimated
Tau: 0.172

# A tibble: 34 × 7
   estimand         estimate     se conf.low conf.high att_level_choose
   <chr>               <dbl>  <dbl>    <dbl>     <dbl> <chr>           
 1 amce_uncorrected -0.0899  0.0236  -0.136    -0.0435 att1:level2     
 2 amce_corrected   -0.137   0.0360  -0.208    -0.0662 att1:level2     
 3 amce_uncorrected -0.130   0.0250  -0.179    -0.0808 att1:level3     
 4 amce_corrected   -0.198   0.0386  -0.274    -0.122  att1:level3     
 5 amce_uncorrected  0.0348  0.0244  -0.0132    0.0828 att2:level2     
 6 amce_corrected    0.0530  0.0372  -0.0202    0.126  att2:level2     
 7 amce_uncorrected -0.00177 0.0263  -0.0536    0.0500 att2:level3     
 8 amce_corrected   -0.00270 0.0402  -0.0817    0.0763 att2:level3     
 9 amce_uncorrected  0.0240  0.0233  -0.0218    0.0699 att3:level2     
10 amce_corrected    0.0366  0.0357  -0.0336    0.107  att3:level2     
# ℹ 24 more rows
# ℹ 1 more variable: att_level_choose_baseline <chr>
…
 writeLines(c(

 succeeded in 2113ms:
Warning messages:
1: In pj_estimate(.data = .data, .structure = structure, .estimand = estimand,  :
  AMCE analytical SEs: CR2 produced non-PSD/NA variances; fell back to se_type='stata' (then HC1 if needed).
2: In pj_estimate(.data = .data, .structure = structure, .estimand = estimand,  :
  AMCE analytical SEs: CR2 produced non-PSD/NA variances; fell back to se_type='stata' (then HC1 if needed).
3: In pj_estimate(.data = .data, .structure = structure, .estimand = estimand,  :
  AMCE analytical SEs: CR2 produced non-PSD/NA variances; fell back to se_type='stata' (then HC1 if needed).
attributes=7 levels=24 refs=7 cluster=id se_type=stata tau=0.172
# A tibble: 24 × 5
  attribute                                    level estimate conf.low conf.high
  <fct>                                        <chr>    <dbl>    <dbl>     <dbl>
1 Violent Crime Rate (Vs National Rate)        20% …   -0.251  -0.334    -0.168 
2 Total Daily Driving Time for Commuting and … 75 m…   -0.237  -0.310    -0.165 
3 Housing Cost                                 40% …   -0.198  -0.274    -0.122 
4 Type of Place                                Smal…    0.158   0.0757    0.240 
5 Type of Place                                Subu…    0.146   0.0681    0.224 
6 Total Daily Driving Time for Commuting and … 45 m…   -0.141  -0.212    -0.0688
7 Housing Cost                                 30% …   -0.137  -0.208    -0.0662
8 Type of Place                                Rura…    0.135   0.0502    0.219 
# ℹ 16 more rows
…
