…
 $ attribute_of_interest           : chr "all"
 $ levels_of_interest              : chr "all except level1"
 $ attribute_of_interest_0         : NULL
 $ levels_of_interest_0            : NULL
 $ attribute_of_interest_baseline  : chr "all"
 $ levels_of_interest_baseline     : chr "level1"
 $ attribute_of_interest_0_baseline: NULL
 $ levels_of_interest_0_baseline   : NULL
 $ se_type_used                    : chr "stata"
 $ cluster_by                      : chr "id"
 $ labels                          : tibble [24 × 4] (S3: tbl_df/tbl/data.frame)
 $ data                            : tibble [6,400 × 13] (S3: tbl_df/tbl/data.frame)
 - attr(*, "class")= chr "projoint_results"
NULL
# A tibble: 30 × 7
   estimand         estimate     se conf.low conf.high att_level_choose
   <chr>               <dbl>  <dbl>    <dbl>     <dbl> <chr>           
 1 amce_uncorrected -0.0899  0.0236  -0.136    -0.0435 att1:level2     
 2 amce_corrected   -0.137   0.0360  -0.208    -0.0662 att1:level2     
 3 amce_uncorrected -0.130   0.0250  -0.179    -0.0808 att1:level3     
 4 amce_corrected   -0.198   0.0386  -0.274    -0.122  att1:level3     
 5 amce_uncorrected  0.0348  0.0244  -0.0132    0.0828 att2:level2     
 6 amce_corrected    0.0530  0.0372  -0.0202    0.126  att2:level2     
 7 amce_uncorrected -0.00177 0.0263  -0.0536    0.0500 att2:level3     
 8 amce_corrected   -0.00270 0.0402  -0.0817    0.0763 att2:level3     
 9 amce_uncorrected  0.0240  0.0233  -0.0218    0.0699 att3:level2     
10 amce_corrected    0.0366  0.0357  -0.0336    0.107  att3:level2     
# ℹ 20 more rows
# ℹ 1 more variable: att_level_choose_baseline <chr>
…
