…
 $ ignore_position                 : NULL
 $ attribute_of_interest           : chr "all"
 $ levels_of_interest              : chr "all"
 $ attribute_of_interest_0         : NULL
 $ levels_of_interest_0            : NULL
 $ attribute_of_interest_baseline  : NULL
 $ levels_of_interest_baseline     : NULL
 $ attribute_of_interest_0_baseline: NULL
 $ levels_of_interest_0_baseline   : NULL
 $ se_type_used                    : chr "CR2"
 $ cluster_by                      : chr "id"
 $ labels                          : tibble [24 × 4] (S3: tbl_df/tbl/data.frame)
 $ data                            : tibble [6,400 × 13] (S3: tbl_df/tbl/data.frame)
 - attr(*, "class")= chr "projoint_results"
# A tibble: 48 × 6
   estimand       estimate     se conf.low conf.high att_level_choose
   <chr>             <dbl>  <dbl>    <dbl>     <dbl> <chr>           
 1 mm_uncorrected    0.574 0.0142    0.546     0.602 att1:level1     
 2 mm_corrected      0.614 0.0219    0.571     0.657 att1:level1     
 3 mm_uncorrected    0.485 0.0136    0.458     0.511 att1:level2     
 4 mm_corrected      0.477 0.0207    0.436     0.517 att1:level2     
 5 mm_uncorrected    0.445 0.0142    0.417     0.472 att1:level3     
 6 mm_corrected      0.416 0.0219    0.372     0.459 att1:level3     
 7 mm_uncorrected    0.489 0.0150    0.459     0.518 att2:level1     
 8 mm_corrected      0.483 0.0229    0.438     0.528 att2:level1     
 9 mm_uncorrected    0.524 0.0133    0.497     0.550 att2:level2     
10 mm_corrected      0.536 0.0203    0.496     0.576 att2:level2     
# ℹ 38 more rows
…
 $ attribute_of_interest_0_baseline: NULL
 $ levels_of_interest_0_baseline   : NULL
 $ se_type_used                    : chr "CR2"
 $ cluster_by                      : chr "id"
 $ labels                          : tibble [24 × 4] (S3: tbl_df/tbl/data.frame)
 $ data                            : tibble [6,400 × 13] (S3: tbl_df/tbl/data.frame)
 - attr(*, "class")= chr "projoint_results"
# A tibble: 2 × 9
  estimand         estimate     se conf.low conf.high att_level_choose
  <chr>               <dbl>  <dbl>    <dbl>     <dbl> <chr>           
1 amce_uncorrected   -0.165 0.0281   -0.220    -0.109 att7:level2     
2 amce_corrected     -0.251 0.0422   -0.334    -0.168 att7:level2     
# ℹ 3 more variables: att_level_notchoose <chr>,
#   att_level_choose_baseline <chr>, att_level_notchoose_baseline <chr>
# A tibble: 24 × 4
   attribute                level                        attribute_id level_id  
   <chr>                    <chr>                        <chr>        <chr>     
 1 Housing Cost             15% of pre-tax income        att1         att1:leve…
 2 Housing Cost             30% of pre-tax income        att1         att1:leve…
 3 Housing Cost             40% of pre-tax income        att1         att1:leve…
 4 Presidential Vote (2020) 30% Democrat, 70% Republican att2         att2:leve…
 5 Presidential Vote (2020) 50% Democrat, 50% Republican att2         att2:leve…
 6 Presidential Vote (2020) 70% Democrat, 30% Republican att2         att2:leve…
 7 Racial Composition       50% White, 50% Nonwhite      att3         att3:leve…
 8 Racial Composition       75% White, 25% Nonwhite      att3         att3:leve…
 9 Racial Composition       90% White, 10% Nonwhite      att3         att3:leve…
10 Racial Composition       96% White, 4% Nonwhite       att3         att3:leve…
# ℹ 14 more rows
…
